1. Data Import • bubbler
…
# path to qiime-formatted asv counts 
counts_q <- system.file("extdata", "qiime", "table-dada2.qza", package = "bubbler")

# path to qiime-formatted taxonomy data 
taxa_q <- system.file("extdata", "qiime", "taxonomy.qza", package = "bubbler")

# path to qiime-formatted metadata
metadata_q <- system.file("extdata", "qiime", "sample-metadata.tsv", package = "bubbler")

# make a relative abundance table 
rel_abund_qiime(counts_q, taxa_q, metadata_q)
#> # A tibble: 26,180 × 13
#>    sample_id asv    level taxon rel_abund barcode_sequence body_site  year month
#>    <chr>     <chr>  <chr> <chr>     <dbl> <fct>            <fct>     <dbl> <dbl>
#>  1 L1S105    33e2c… Phyl… Firm…   0       AGTGCGATGCGT     gut        2009     3
#>  2 L1S105    5656d… Phyl… Firm…   0       AGTGCGATGCGT     gut        2009     3
#>  3 L1S105    7d893… Phyl… Firm…   0       AGTGCGATGCGT     gut        2009     3
#>  4 L1S105    ecf9e… Phyl… Prot…   0       AGTGCGATGCGT     gut        2009     3
#>  5 L1S105    acfe4… Phyl… Firm…   0       AGTGCGATGCGT     gut        2009     3
#>  6 L1S105    80b20… Phyl… Firm…   0       AGTGCGATGCGT     gut        2009     3
#>  7 L1S105    a1b97… Phyl… Firm…   0       AGTGCGATGCGT     gut        2009     3
#>  8 L1S105    d781f… Phyl… Firm…   0       AGTGCGATGCGT     gut        2009     3
#>  9 L1S105    bfbed… Phyl… Firm…   0.00193 AGTGCGATGCGT     gut        2009     3
#> 10 L1S105    90d32… Phyl… Firm…   0.00399 AGTGCGATGCGT     gut        2009     3
#> # ℹ 26,170 more rows
#> # ℹ 4 more variables: day <dbl>, subject <fct>,
#> #   reported_antibiotic_usage <fct>, days_since_experiment_start <dbl>
…
# path to asv counts in tab-separated format
counts <- system.file("extdata", "tsv", "seqtab.tsv", package = "bubbler")

# path to taxonomy data in tab-separated format
taxa <- system.file("extdata", "tsv", "taxa.tsv", package = "bubbler")

# path to metadata in tab-seperated format 
metadata <- system.file("extdata", "tsv", "metadata.tsv", package = "bubbler")

# make a relative abundance table
rel_abund_tsv(counts, taxa, metadata)
#> # A tibble: 200 × 8
#>    sample_id asv   level  taxon         rel_abund Depth Carbon_source Date      
#>    <chr>     <chr> <chr>  <chr>             <dbl> <dbl> <chr>         <date>    
#>  1 Smp1      ASV1  Phylum Actinomyceto…   6.09e-6    15 Hexadecane    2021-01-21
#>  2 Smp1      ASV2  Phylum Bacillota       1.83e-5    15 Hexadecane    2021-01-21
#>  3 Smp1      ASV3  Phylum Bacillota       4.83e-3    15 Hexadecane    2021-01-21
#>  4 Smp1      ASV4  Phylum Pseudomonado…   5.48e-5    15 Hexadecane    2021-01-21
#>  5 Smp1      ASV5  Phylum Pseudomonado…   6.09e-5    15 Hexadecane    2021-01-21
#>  6 Smp1      ASV6  Phylum Pseudomonado…   7.71e-3    15 Hexadecane    2021-01-21
#>  7 Smp1      ASV7  Phylum Bacteroidota    1.76e-4    15 Hexadecane    2021-01-21
#>  8 Smp1      ASV8  Phylum Bacillota       0          15 Hexadecane    2021-01-21
#>  9 Smp1      ASV9  Phylum Pseudomonado…   0          15 Hexadecane    2021-01-21
#> 10 Smp1      ASV10 Phylum Pseudomonado…   6.09e-6    15 Hexadecane    2021-01-21
#> # ℹ 190 more rows

Phyloseq

If you can get your data into a phyloseq object, it is possible to
import that as well. bubbler expects to see a otu_table and
tax_table, and optionally, sam_data within the phyloseq object.

# example phyloseq
rel_abund_phy(physeq1,
              taxa_data = TRUE,
              meta_data = TRUE)
#> Loading required package: phyloseq
#> # A tibble: 100 × 7
#>    sample_id asv   level  taxon          rel_abund Location Depth
#>    <chr>     <chr> <chr>  <chr>              <dbl> <chr>    <int>
#>  1 Smp1      ASV1  Phylum Firmicutes       0.00208 C          339
#>  2 Smp1      ASV2  Phylum Actinobacteria   0.0198  C          339
#>  3 Smp1      ASV3  Phylum Actinobacteria   0.0135  C          339
#>  4 Smp1      ASV4  Phylum Firmicutes       0.00665 C          339
#>  5 Smp1      ASV5  Phylum Proteobacteria   0.0104  C          339
#>  6 Smp1      ASV6  Phylum Firmicutes       0.0129  C          339
#>  7 Smp1      ASV7  Phylum Proteobacteria   0.0162  C          339
#>  8 Smp1      ASV8  Phylum Proteobacteria   0.0146  C          339
#>  9 Smp1      ASV9  Phylum Proteobacteria   0.00208 C          339
#> 10 Smp1      ASV10 Phylum Actinobacteria   0.00270 C          339
#> # ℹ 90 more rows
…
